{
    "results": [
        {
            "id": "9deeb67c-f66a-4c97-9d5e-09005dd53c0e",
            "name": "hpe-alletra Alletra 9000 HPE Alletra Battery Template - 10",
            "description": "hpe-alletra Alletra 9000 HPE Alletra Battery Template - 10",
            "generation": 2,
            "collectorType": "Gateway",
            "applicableFor": "All Resources",
            "monitors": "hpe_alletra_battery_State, hpe_alletra_battery_DetailedState",
            "createdDate": "2025-05-21T10:56:10+0000",
            "updatedDate": "2025-05-21T10:56:10+0000",
            "version": 10,
            "prerequisites": null,
            "status": "ACTIVE",
            "notes": null,
            "deploymentType": "Standard",
            "scope": "GLOBAL",
            "templateType": null,
            "hasForecastOrCD": false
        },
        {
            "id": "6127697c-7432-4d00-950b-472fc00fe074",
            "name": "hpe-alletra Alletra 9000 HPE Alletra Node Template - 10",
            "description": "hpe-alletra Alletra 9000 HPE Alletra Node Template - 10",
            "generation": 2,
            "collectorType": "Gateway",
            "applicableFor": "All Resources",
            "monitors": "hpe_alletra_node_State, hpe_alletra_node_DetailedState, hpe_alletra_nodePowerSupply_State, hpe_alletra_nodePowerSupply_ACState, hpe_alletra_nodePowerSupply_DCState",
            "createdDate": "2025-05-21T10:56:09+0000",
            "updatedDate": "2025-05-21T10:56:09+0000",
            "version": 10,
            "prerequisites": null,
            "status": "ACTIVE",
            "notes": null,
            "deploymentType": "Standard",
            "scope": "GLOBAL",
            "templateType": null,
            "hasForecastOrCD": false
        },
        {
            "id": "3a92be18-1ed4-41eb-99b6-ba534c035472",
            "name": "hpe-alletra Alletra 9000 HPE Alletra Cage Template - 10",
            "description": "hpe-alletra Alletra 9000 HPE Alletra Cage Template - 10",
            "generation": 2,
            "collectorType": "Gateway",
            "applicableFor": "All Resources",
            "monitors": "HPE Alletra Cage Detailed State, hpe_alletra_cagePowerSupply_State, hpe_alletra_cagePowerSupply_FanState",
            "createdDate": "2025-05-21T10:56:09+0000",
            "updatedDate": "2025-05-21T10:56:09+0000",
            "version": 10,
            "prerequisites": null,
            "status": "ACTIVE",
            "notes": null,
            "deploymentType": "Standard",
            "scope": "GLOBAL",
            "templateType": null,
            "hasForecastOrCD": false
        },
        {
            "id": "88286466-1b2e-49dd-8bfa-822eedc13593",
            "name": "hpe-alletra Alletra 9000 HPE Alletra Port Template - 10",
            "description": "hpe-alletra Alletra 9000 HPE Alletra Port Template - 10",
            "generation": 2,
            "collectorType": "Gateway",
            "applicableFor": "All Resources",
            "monitors": "hpe_alletra_portStatistics_Speed, hpe_alletra_portStatistics_IO, hpe_alletra_portStatistics_KBytes, hpe_alletra_portStatistics_ServiceTimeMS, hpe_alletra_portStatistics_IOSizeKB, hpe_alletra_portStatistics_QueueLength, hpe_alletra_portStatistics_BusyPct, hpe_alletra_port_LinkState, hpe_alletra_port_State, hpe_alletra_port_FailoverState",
            "createdDate": "2025-05-21T10:56:09+0000",
            "updatedDate": "2025-05-21T10:56:09+0000",
            "version": 10,
            "prerequisites": null,
            "status": "ACTIVE",
            "notes": null,
            "deploymentType": "Standard",
            "scope": "GLOBAL",
            "templateType": null,
            "hasForecastOrCD": false
        },
        {
            "id": "ea610fad-3b00-4d7d-ab04-b68acb53d418",
            "name": "hpe-alletra Alletra 9000 HPE Alletra Physical Disk Template - 10",
            "description": "hpe-alletra Alletra 9000 HPE Alletra Physical Disk Template - 10",
            "generation": 2,
            "collectorType": "Gateway",
            "applicableFor": "All Resources",
            "monitors": "hpe_alletra_physicalDiskCapacity_AllocatedMiB, hpe_alletra_physicalDiskCapacity_AllocatedUtilization, hpe_alletra_physicalDiskCapacity_FailedMiB, hpe_alletra_physicalDiskStatistics_IO, hpe_alletra_physicalDiskStatistics_KBytes, hpe_alletra_physicalDiskStatistics_ServiceTimeMS, hpe_alletra_physicalDiskStatistics_IOSizeKB, hpe_alletra_physicalDiskStatistics_QueueLength, hpe_alletra_physicalDiskStatistics_BusyPct, hpe_alletra_physicalDiskSpacedata_NormalChunklets, hpe_alletra_physicalDiskSpacedata_SpareChunklets, hpe_alletra_physicalDiskSpacedata_LifeLeftPct, hpe_alletra_physicalDiskSpacedata_TemperatureC, HPE Alletra PhysicalDisk State, HPE Alletra PhysicalDisk SpareCapacity",
            "createdDate": "2025-05-21T10:56:09+0000",
            "updatedDate": "2025-05-21T10:56:09+0000",
            "version": 10,
            "prerequisites": null,
            "status": "ACTIVE",
            "notes": null,
            "deploymentType": "Standard",
            "scope": "GLOBAL",
            "templateType": null,
            "hasForecastOrCD": false
        },
        {
            "id": "6e8871eb-65e1-4338-ad35-51ab99b62e37",
            "name": "hpe-alletra Alletra 9000 HPE Alletra VLUN Template - 10",
            "description": "hpe-alletra Alletra 9000 HPE Alletra VLUN Template - 10",
            "generation": 2,
            "collectorType": "Gateway",
            "applicableFor": "All Resources",
            "monitors": "hpe_alletra_vlunstatistics_IO, hpe_alletra_vlunstatistics_KBytes, hpe_alletra_vlunstatistics_ServiceTimeMS, hpe_alletra_vlunstatistics_IOSizeKB, hpe_alletra_vlunstatistics_QueueLength, hpe_alletra_vlunstatistics_BusyPct",
            "createdDate": "2025-05-21T10:56:08+0000",
            "updatedDate": "2025-05-21T10:56:08+0000",
            "version": 10,
            "prerequisites": null,
            "status": "ACTIVE",
            "notes": null,
            "deploymentType": "Standard",
            "scope": "GLOBAL",
            "templateType": null,
            "hasForecastOrCD": false
        },
        {
            "id": "74db81a1-0db5-40a8-8720-d277abbf8e91",
            "name": "hpe-alletra Alletra 9000 HPE Alletra Storage Volume Template - 10",
            "description": "hpe-alletra Alletra 9000 HPE Alletra Storage Volume Template - 10",
            "generation": 2,
            "collectorType": "Gateway",
            "applicableFor": "All Resources",
            "monitors": "hpe_alletra_volumeSpaceData_rawReserved_UserMiB, hpe_alletra_volumeSpaceData_rawReserved_SnapMiB, hpe_alletra_volumeSpaceData_rawReserved_AdminMiB, hpe_alletra_volumeSpaceData_rawReserved_TotalMiB, hpe_alletra_volumeSpaceData_userSpace_UsedMiB, hpe_alletra_volumeSpaceData_userSpace_UsedUtilization, hpe_alletra_volumeSpaceData_snapSpace_UsedMiB, hpe_alletra_volumeSpaceData_snapSpace_UsedUtilization, hpe_alletra_volumeSpaceData_snapSpace_VcopyMiB, hpe_alletra_volumeSpaceData_adminSpace_UsedMiB, hpe_alletra_volumeSpaceData_adminSpace_UsedUtilization, hpe_alletra_volumeSpaceData_adminSpace_VcopyMiB, hpe_alletra_volumeSpaceData_totalSpace_UsedMiB, hpe_alletra_volumeSpaceData_totalSpace_UsedUtilization, hpe_alletra_volumeSpaceData_totalSpace_VcopyMiB, hpe_alletra_volumeSpaceData_totalSpace_HostWriteMiB, hpe_alletra_volumeSpaceData_CapacityEfficiency, hpe_alletra_volumeSpaceData_CompressionGcKBPS, hpe_alletra_volumeSpaceData_CompressionState, hpe_alletra_volume_State, hpe_alletra_volume_DeduplicationState, HPE Alletra Volume Read IOPS, HPE Alletra Volume Write IOPS, HPE Alletra Volume SpaceData TotalSpace Virtual Size, HPE Alletra Volume Total IOPS, HPE Alletra Volume SnapsCount, HPE Alletra Volume LastSnapshot ElapsedTime, HPE Alletra Volume Read Latency, HPE Alletra Volume Write Latency, HPE Alletra Volume TotalLatency",
            "createdDate": "2025-05-21T10:56:08+0000",
            "updatedDate": "2025-05-21T10:56:08+0000",
            "version": 10,
            "prerequisites": null,
            "status": "ACTIVE",
            "notes": null,
            "deploymentType": "Standard",
            "scope": "GLOBAL",
            "templateType": null,
            "hasForecastOrCD": false
        },
        {
            "id": "7f321bb8-5b31-4d29-84b4-833d54a989bc",
            "name": "hpe-alletra Alletra 9000 HPE Alletra Common Provisioning Group Template - 10",
            "description": "hpe-alletra Alletra 9000 HPE Alletra Common Provisioning Group Template - 10",
            "generation": 2,
            "collectorType": "Gateway",
            "applicableFor": "All Resources",
            "monitors": "hpe_alletra_cpgSpaceData_TotalUsedSpaceMiB, hpe_alletra_cpgSpaceData_UserUsedSpaceMiB, hpe_alletra_cpgSpaceData_SnapUsedSpaceMiB, hpe_alletra_cpgSpaceData_AdminUsedSpaceMiB, hpe_alletra_cpgSpaceData_TotalUsedSpaceUtilization, hpe_alletra_cpgSpaceData_UserUsedSpaceUtilization, hpe_alletra_cpgSpaceData_SnapUsedSpaceUtilization, hpe_alletra_cpgSpaceData_AdminUsedSpaceUtilization, hpe_alletra_cpgSpaceData_base_PrivateSpaceMiB, hpe_alletra_cpgSpaceData_snapshot_PrivateSpaceMiB, hpe_alletra_cpgSpaceData_GrowthMiB, hpe_alletra_cpgSpaceData_DeduplicationGcKBPS, hpe_alletra_cpgSpaceData_CapacityEfficiency, hpe_alletra_cpgStatistics_IO, hpe_alletra_cpgStatistics_Kbytes, hpe_alletra_cpgStatistics_ServiceTimeMS, hpe_alletra_cpgStatistics_IOSizeKB, hpe_alletra_cpgStatistics_QueueLength, hpe_alletra_cpgStatistics_BusyPct, hpe_alletra_cpg_state",
            "createdDate": "2025-05-21T10:56:07+0000",
            "updatedDate": "2025-05-21T10:56:07+0000",
            "version": 10,
            "prerequisites": null,
            "status": "ACTIVE",
            "notes": null,
            "deploymentType": "Standard",
            "scope": "GLOBAL",
            "templateType": null,
            "hasForecastOrCD": false
        },
        {
            "id": "ac9593b9-0680-419d-b2ff-d5881d301511",
            "name": "hpe-alletra Alletra 9000 HPE Alletra Storage System Template - 10",
            "description": "hpe-alletra Alletra 9000 HPE Alletra Storage System Template - 10",
            "generation": 2,
            "collectorType": "Gateway",
            "applicableFor": "All Resources",
            "monitors": "hpe_alletra_system_license_State, hpe_alletra_system_node_online_status, hpe_alletra_system_capacity_AllocatedMiB, HPE Alletra System Capacity Free for Allocation, HPE Alletra System Capacity Total Size, HPE Alletra System Capacity Used, hpe_alletra_system_capacity_FailedMiB, hpe_alletra_system_capacity_OverProvisionedVirtualSizeMiB, hpe_alletra_system_capacity_OverProvisionedUsedMiB, hpe_alletra_system_capacity_OverProvisionedAllocatedMiB, hpe_alletra_system_capacity_OverProvisionedFreeMiB, hpe_alletra_cacheMemoryStatistics_HitIO, hpe_alletra_cacheMemoryStatistics_MissIO, hpe_alletra_cacheMemoryStatistics_AccessIO, hpe_alletra_cacheMemoryStatistics_HitPct, hpe_alletra_cacheMemoryStatistics_TotalAccessIO, hpe_alletra_cacheMemoryStatistics_LockBulkIO, hpe_alletra_cacheMemoryStatistics_PageStates, hpe_alletra_cacheMemoryStatistics_DirtyPages, hpe_alletra_cacheMemoryStatistics_MaxDirtyPages, hpe_alletra_cacheMemoryStatistics_DelayAckPages, hpe_alletra_cpuStatistics_UserPct, hpe_alletra_cpuStatistics_SystemPct, hpe_alletra_cpuStatistics_IdlePct, hpe_alletra_cpuStatistics_InterruptsPerSec, hpe_alletra_cpuStatistics_ContextSwitchesPerSec, hpe_alletra_diskDrive_State, HPE Alletra System Free Capacity, HPE Alletra System Free Capacity Utilization, HPE Alletra Remote Copy Status, HPE Alletra Remote Copy Target Status, HPE Alletra Remote Copy Target State, HPE Alletra Remote Copy Group State, HPE Alletra Remote Volume Sync State, HPE Alletra Remote Copy Total KBytes, HPE Alletra Remote Copy throughput KByte Sec, HPE Alletra Remote Copy Average Throughput KByte Sec, HPE Alletra Remote Copy Link Status, HPE Alletra Remote Copy Link State, HPE Alletra Remote Copy Target Quorum Status, HPE Alletra Remote Copy Role, HPE Alletra Remote Copy Link Throughput KByte Sec, HPE Alletra System UsedCapacity Utilization, hpe_alletra_event_Statistics",
            "createdDate": "2025-05-21T10:56:07+0000",
            "updatedDate": "2025-05-21T10:56:07+0000",
            "version": 10,
            "prerequisites": null,
            "status": "ACTIVE",
            "notes": null,
            "deploymentType": "Standard",
            "scope": "GLOBAL",
            "templateType": null,
            "hasForecastOrCD": false
        },
        {
            "id": "f6af257b-62c6-4203-af4f-39df35a89ddf",
            "name": "hpe-alletra Alletra 9000 HPE Alletra Battery Template - 9",
            "description": "hpe-alletra Alletra 9000 HPE Alletra Battery Template - 9",
            "generation": 2,
            "collectorType": "Gateway",
            "applicableFor": "All Resources",
            "monitors": "hpe_alletra_battery_State, hpe_alletra_battery_DetailedState",
            "createdDate": "2025-04-08T09:40:53+0000",
            "updatedDate": "2025-04-08T09:40:53+0000",
            "version": 9,
            "prerequisites": null,
            "status": "ACTIVE",
            "notes": null,
            "deploymentType": "Standard",
            "scope": "GLOBAL",
            "templateType": null,
            "hasForecastOrCD": false
        },
        {
            "id": "61225c9c-fe8b-45bf-a938-4e3905bb3a94",
            "name": "hpe-alletra Alletra 9000 HPE Alletra Node Template - 9",
            "description": "hpe-alletra Alletra 9000 HPE Alletra Node Template - 9",
            "generation": 2,
            "collectorType": "Gateway",
            "applicableFor": "All Resources",
            "monitors": "hpe_alletra_node_State, hpe_alletra_node_DetailedState, hpe_alletra_nodePowerSupply_State, hpe_alletra_nodePowerSupply_ACState, hpe_alletra_nodePowerSupply_DCState",
            "createdDate": "2025-04-08T09:40:53+0000",
            "updatedDate": "2025-04-08T09:40:53+0000",
            "version": 9,
            "prerequisites": null,
            "status": "ACTIVE",
            "notes": null,
            "deploymentType": "Standard",
            "scope": "GLOBAL",
            "templateType": null,
            "hasForecastOrCD": false
        },
        {
            "id": "92ed11a3-0c4b-42e0-98dd-0f70824d60e4",
            "name": "hpe-alletra Alletra 9000 HPE Alletra Cage Template - 9",
            "description": "hpe-alletra Alletra 9000 HPE Alletra Cage Template - 9",
            "generation": 2,
            "collectorType": "Gateway",
            "applicableFor": "All Resources",
            "monitors": "HPE Alletra Cage Detailed State, hpe_alletra_cagePowerSupply_State, hpe_alletra_cagePowerSupply_FanState",
            "createdDate": "2025-04-08T09:40:52+0000",
            "updatedDate": "2025-04-08T09:40:52+0000",
            "version": 9,
            "prerequisites": null,
            "status": "ACTIVE",
            "notes": null,
            "deploymentType": "Standard",
            "scope": "GLOBAL",
            "templateType": null,
            "hasForecastOrCD": false
        },
        {
            "id": "c07f74d8-c328-41c5-94ed-9d69da316943",
            "name": "hpe-alletra Alletra 9000 HPE Alletra Port Template - 9",
            "description": "hpe-alletra Alletra 9000 HPE Alletra Port Template - 9",
            "generation": 2,
            "collectorType": "Gateway",
            "applicableFor": "All Resources",
            "monitors": "hpe_alletra_portStatistics_Speed, hpe_alletra_portStatistics_IO, hpe_alletra_portStatistics_KBytes, hpe_alletra_portStatistics_ServiceTimeMS, hpe_alletra_portStatistics_IOSizeKB, hpe_alletra_portStatistics_QueueLength, hpe_alletra_portStatistics_BusyPct, hpe_alletra_port_LinkState, hpe_alletra_port_State, hpe_alletra_port_FailoverState",
            "createdDate": "2025-04-08T09:40:52+0000",
            "updatedDate": "2025-04-08T09:40:52+0000",
            "version": 9,
            "prerequisites": null,
            "status": "ACTIVE",
            "notes": null,
            "deploymentType": "Standard",
            "scope": "GLOBAL",
            "templateType": null,
            "hasForecastOrCD": false
        },
        {
            "id": "2baa4bd8-b7d0-45f2-bb4d-1cbc8cd68b1b",
            "name": "hpe-alletra Alletra 9000 HPE Alletra Physical Disk Template - 9",
            "description": "hpe-alletra Alletra 9000 HPE Alletra Physical Disk Template - 9",
            "generation": 2,
            "collectorType": "Gateway",
            "applicableFor": "All Resources",
            "monitors": "hpe_alletra_physicalDiskCapacity_AllocatedMiB, hpe_alletra_physicalDiskCapacity_AllocatedUtilization, hpe_alletra_physicalDiskCapacity_FailedMiB, hpe_alletra_physicalDiskStatistics_IO, hpe_alletra_physicalDiskStatistics_KBytes, hpe_alletra_physicalDiskStatistics_ServiceTimeMS, hpe_alletra_physicalDiskStatistics_IOSizeKB, hpe_alletra_physicalDiskStatistics_QueueLength, hpe_alletra_physicalDiskStatistics_BusyPct, hpe_alletra_physicalDiskSpacedata_NormalChunklets, hpe_alletra_physicalDiskSpacedata_SpareChunklets, hpe_alletra_physicalDiskSpacedata_LifeLeftPct, hpe_alletra_physicalDiskSpacedata_TemperatureC, HPE Alletra PhysicalDisk State",
            "createdDate": "2025-04-08T09:40:51+0000",
            "updatedDate": "2025-04-08T09:40:51+0000",
            "version": 9,
            "prerequisites": null,
            "status": "ACTIVE",
            "notes": null,
            "deploymentType": "Standard",
            "scope": "GLOBAL",
            "templateType": null,
            "hasForecastOrCD": false
        },
        {
            "id": "69f108bd-0ded-4a89-9edf-22fc7695ea33",
            "name": "hpe-alletra Alletra 9000 HPE Alletra VLUN Template - 9",
            "description": "hpe-alletra Alletra 9000 HPE Alletra VLUN Template - 9",
            "generation": 2,
            "collectorType": "Gateway",
            "applicableFor": "All Resources",
            "monitors": "hpe_alletra_vlunstatistics_IO, hpe_alletra_vlunstatistics_KBytes, hpe_alletra_vlunstatistics_ServiceTimeMS, hpe_alletra_vlunstatistics_IOSizeKB, hpe_alletra_vlunstatistics_QueueLength, hpe_alletra_vlunstatistics_BusyPct",
            "createdDate": "2025-04-08T09:40:50+0000",
            "updatedDate": "2025-04-08T09:40:50+0000",
            "version": 9,
            "prerequisites": null,
            "status": "ACTIVE",
            "notes": null,
            "deploymentType": "Standard",
            "scope": "GLOBAL",
            "templateType": null,
            "hasForecastOrCD": false
        },
        {
            "id": "0018e1d5-c3a2-46bf-b4da-b0484fd670bd",
            "name": "hpe-alletra Alletra 9000 HPE Alletra Storage Volume Template - 9",
            "description": "hpe-alletra Alletra 9000 HPE Alletra Storage Volume Template - 9",
            "generation": 2,
            "collectorType": "Gateway",
            "applicableFor": "All Resources",
            "monitors": "hpe_alletra_volumeSpaceData_rawReserved_UserMiB, hpe_alletra_volumeSpaceData_rawReserved_SnapMiB, hpe_alletra_volumeSpaceData_rawReserved_AdminMiB, hpe_alletra_volumeSpaceData_rawReserved_TotalMiB, hpe_alletra_volumeSpaceData_userSpace_UsedMiB, hpe_alletra_volumeSpaceData_userSpace_UsedUtilization, hpe_alletra_volumeSpaceData_snapSpace_UsedMiB, hpe_alletra_volumeSpaceData_snapSpace_UsedUtilization, hpe_alletra_volumeSpaceData_snapSpace_VcopyMiB, hpe_alletra_volumeSpaceData_adminSpace_UsedMiB, hpe_alletra_volumeSpaceData_adminSpace_UsedUtilization, hpe_alletra_volumeSpaceData_adminSpace_VcopyMiB, hpe_alletra_volumeSpaceData_totalSpace_UsedMiB, hpe_alletra_volumeSpaceData_totalSpace_UsedUtilization, hpe_alletra_volumeSpaceData_totalSpace_VcopyMiB, hpe_alletra_volumeSpaceData_totalSpace_HostWriteMiB, hpe_alletra_volumeSpaceData_CapacityEfficiency, hpe_alletra_volumeSpaceData_CompressionGcKBPS, hpe_alletra_volumeSpaceData_CompressionState, hpe_alletra_volume_State, hpe_alletra_volume_DeduplicationState, HPE Alletra Volume Read IOPS, HPE Alletra Volume Write IOPS, HPE Alletra Volume SpaceData TotalSpace Virtual Size, HPE Alletra Volume Total IOPS, HPE Alletra Volume SnapsCount, HPE Alletra Volume LastSnapshot ElapsedTime, HPE Alletra Volume Read Latency, HPE Alletra Volume Write Latency, HPE Alletra Volume TotalLatency",
            "createdDate": "2025-04-08T09:40:49+0000",
            "updatedDate": "2025-04-08T09:40:49+0000",
            "version": 9,
            "prerequisites": null,
            "status": "ACTIVE",
            "notes": null,
            "deploymentType": "Standard",
            "scope": "GLOBAL",
            "templateType": null,
            "hasForecastOrCD": false
        },
        {
            "id": "9e3cb870-67ce-4fa2-bef3-3ddb0b8c4699",
            "name": "hpe-alletra Alletra 9000 HPE Alletra Common Provisioning Group Template - 9",
            "description": "hpe-alletra Alletra 9000 HPE Alletra Common Provisioning Group Template - 9",
            "generation": 2,
            "collectorType": "Gateway",
            "applicableFor": "All Resources",
            "monitors": "hpe_alletra_cpgSpaceData_TotalUsedSpaceMiB, hpe_alletra_cpgSpaceData_UserUsedSpaceMiB, hpe_alletra_cpgSpaceData_SnapUsedSpaceMiB, hpe_alletra_cpgSpaceData_AdminUsedSpaceMiB, hpe_alletra_cpgSpaceData_TotalUsedSpaceUtilization, hpe_alletra_cpgSpaceData_UserUsedSpaceUtilization, hpe_alletra_cpgSpaceData_SnapUsedSpaceUtilization, hpe_alletra_cpgSpaceData_AdminUsedSpaceUtilization, hpe_alletra_cpgSpaceData_base_PrivateSpaceMiB, hpe_alletra_cpgSpaceData_snapshot_PrivateSpaceMiB, hpe_alletra_cpgSpaceData_GrowthMiB, hpe_alletra_cpgSpaceData_DeduplicationGcKBPS, hpe_alletra_cpgSpaceData_CapacityEfficiency, hpe_alletra_cpgStatistics_IO, hpe_alletra_cpgStatistics_Kbytes, hpe_alletra_cpgStatistics_ServiceTimeMS, hpe_alletra_cpgStatistics_IOSizeKB, hpe_alletra_cpgStatistics_QueueLength, hpe_alletra_cpgStatistics_BusyPct, hpe_alletra_cpg_state",
            "createdDate": "2025-04-08T09:40:47+0000",
            "updatedDate": "2025-04-08T09:40:47+0000",
            "version": 9,
            "prerequisites": null,
            "status": "ACTIVE",
            "notes": null,
            "deploymentType": "Standard",
            "scope": "GLOBAL",
            "templateType": null,
            "hasForecastOrCD": false
        },
        {
            "id": "52548bcd-6cfb-410b-aaac-bec1b7659830",
            "name": "hpe-alletra Alletra 9000 HPE Alletra Storage System Template - 9",
            "description": "hpe-alletra Alletra 9000 HPE Alletra Storage System Template - 9",
            "generation": 2,
            "collectorType": "Gateway",
            "applicableFor": "All Resources",
            "monitors": "hpe_alletra_system_license_State, hpe_alletra_system_node_online_status, hpe_alletra_system_capacity_AllocatedMiB, HPE Alletra System Capacity Free for Allocation, HPE Alletra System Capacity Total Size, HPE Alletra System Capacity Used, hpe_alletra_system_capacity_FailedMiB, hpe_alletra_system_capacity_OverProvisionedVirtualSizeMiB, hpe_alletra_system_capacity_OverProvisionedUsedMiB, hpe_alletra_system_capacity_OverProvisionedAllocatedMiB, hpe_alletra_system_capacity_OverProvisionedFreeMiB, hpe_alletra_cacheMemoryStatistics_HitIO, hpe_alletra_cacheMemoryStatistics_MissIO, hpe_alletra_cacheMemoryStatistics_AccessIO, hpe_alletra_cacheMemoryStatistics_HitPct, hpe_alletra_cacheMemoryStatistics_TotalAccessIO, hpe_alletra_cacheMemoryStatistics_LockBulkIO, hpe_alletra_cacheMemoryStatistics_PageStates, hpe_alletra_cacheMemoryStatistics_DirtyPages, hpe_alletra_cacheMemoryStatistics_MaxDirtyPages, hpe_alletra_cacheMemoryStatistics_DelayAckPages, hpe_alletra_cpuStatistics_UserPct, hpe_alletra_cpuStatistics_SystemPct, hpe_alletra_cpuStatistics_IdlePct, hpe_alletra_cpuStatistics_InterruptsPerSec, hpe_alletra_cpuStatistics_ContextSwitchesPerSec, hpe_alletra_diskDrive_State, HPE Alletra System Free Capacity, HPE Alletra System Free Capacity Utilization, HPE Alletra Remote Copy Status, HPE Alletra Remote Copy Target Status, HPE Alletra Remote Copy Target State, HPE Alletra Remote Copy Group State, HPE Alletra Remote Volume Sync State, HPE Alletra Remote Copy Total KBytes, HPE Alletra Remote Copy throughput KByte Sec, HPE Alletra Remote Copy Average Throughput KByte Sec, HPE Alletra Remote Copy Link Status, HPE Alletra Remote Copy Link State, HPE Alletra Remote Copy Target Quorum Status, HPE Alletra Remote Copy Role, HPE Alletra Remote Copy Link Throughput KByte Sec, hpe_alletra_event_Statistics",
            "createdDate": "2025-04-08T09:40:46+0000",
            "updatedDate": "2025-04-08T09:40:46+0000",
            "version": 9,
            "prerequisites": null,
            "status": "ACTIVE",
            "notes": null,
            "deploymentType": "Standard",
            "scope": "GLOBAL",
            "templateType": null,
            "hasForecastOrCD": false
        },
        {
            "id": "3a01147c-e201-475a-9685-eae08887b3b7",
            "name": "hpe-alletra Alletra 9000 HPE Alletra Battery Template - 8",
            "description": "hpe-alletra Alletra 9000 HPE Alletra Battery Template - 8",
            "generation": 2,
            "collectorType": "Gateway",
            "applicableFor": "All Resources",
            "monitors": "hpe_alletra_battery_State, hpe_alletra_battery_DetailedState",
            "createdDate": "2025-02-27T09:09:27+0000",
            "updatedDate": "2025-02-27T09:09:27+0000",
            "version": 8,
            "prerequisites": null,
            "status": "ACTIVE",
            "notes": null,
            "deploymentType": "Standard",
            "scope": "GLOBAL",
            "templateType": null,
            "hasForecastOrCD": false
        },
        {
            "id": "8401e0d5-016b-4267-9f36-77eb136f46bb",
            "name": "hpe-alletra Alletra 9000 HPE Alletra Node Template - 8",
            "description": "hpe-alletra Alletra 9000 HPE Alletra Node Template - 8",
            "generation": 2,
            "collectorType": "Gateway",
            "applicableFor": "All Resources",
            "monitors": "hpe_alletra_node_State, hpe_alletra_node_DetailedState, hpe_alletra_nodePowerSupply_State, hpe_alletra_nodePowerSupply_ACState, hpe_alletra_nodePowerSupply_DCState",
            "createdDate": "2025-02-27T09:09:27+0000",
            "updatedDate": "2025-02-27T09:09:27+0000",
            "version": 8,
            "prerequisites": null,
            "status": "ACTIVE",
            "notes": null,
            "deploymentType": "Standard",
            "scope": "GLOBAL",
            "templateType": null,
            "hasForecastOrCD": false
        }
    ],
    "totalResults": 72,
    "orderBy": "id",
    "pageNo": 1,
    "pageSize": 20,
    "totalPages": 4,
    "nextPage": true,
    "nextPageNo": 2,
    "previousPageNo": 0,
    "descendingOrder": true
}