{
    "results": [
        {
            "id": "26b19c3f-eb2f-4989-9c93-833988e118a1",
            "name": "hpe-alletra-mp-b10000 HPE Alletra MP B10000 Node Template - 1",
            "description": "hpe-alletra-mp-b10000 HPE Alletra MP B10000 Node Template - 1",
            "generation": 2,
            "collectorType": "Gateway",
            "applicableFor": "All Resources",
            "monitors": "HPE Alletra MP B10000 Node State",
            "createdDate": "2025-08-12T10:42:15+0000",
            "updatedDate": "2025-08-12T10:42:15+0000",
            "version": 1,
            "prerequisites": null,
            "status": "ACTIVE",
            "notes": null,
            "deploymentType": "Standard",
            "scope": "GLOBAL",
            "templateType": null,
            "hasForecastOrCD": false
        },
        {
            "id": "11aa9b46-1522-4c5f-8a39-fef8a02cb46a",
            "name": "hpe-alletra-mp-b10000 HPE Alletra MP B10000 Cage Template - 1",
            "description": "hpe-alletra-mp-b10000 HPE Alletra MP B10000 Cage Template - 1",
            "generation": 2,
            "collectorType": "Gateway",
            "applicableFor": "All Resources",
            "monitors": "HPE Alletra MP B10000 Cage Detailed State, HPE Alletra MP B10000 CagePowerSupply State, HPE Alletra MP B10000 CagePowerSupply FanState",
            "createdDate": "2025-08-12T10:42:14+0000",
            "updatedDate": "2025-08-12T10:42:14+0000",
            "version": 1,
            "prerequisites": null,
            "status": "ACTIVE",
            "notes": null,
            "deploymentType": "Standard",
            "scope": "GLOBAL",
            "templateType": null,
            "hasForecastOrCD": false
        },
        {
            "id": "6f483fca-6aca-45ae-b19c-530449cb46d3",
            "name": "hpe-alletra-mp-b10000 HPE Alletra MP B10000 Port Template - 1",
            "description": "hpe-alletra-mp-b10000 HPE Alletra MP B10000 Port Template - 1",
            "generation": 2,
            "collectorType": "Gateway",
            "applicableFor": "All Resources",
            "monitors": "HPE Alletra MP B10000 Speed PortStatistics, HPE Alletra MP B10000 IO PortStatistics, HPE Alletra MP B10000 KBytes PortStatistics, HPE Alletra MP B10000 ServiceTimeMS PortStatistics, HPE Alletra MP B10000 IOSizeKB PortStatistics, HPE Alletra MP B10000 QueueLength PortStatistics, HPE Alletra MP B10000 BusyPct PortStatistics, HPE Alletra MP B10000 Port LinkState, HPE Alletra MP B10000 Port State, HPE Alletra MP B10000 Port FailOverState",
            "createdDate": "2025-08-12T10:42:11+0000",
            "updatedDate": "2025-08-12T10:42:11+0000",
            "version": 1,
            "prerequisites": null,
            "status": "ACTIVE",
            "notes": null,
            "deploymentType": "Standard",
            "scope": "GLOBAL",
            "templateType": null,
            "hasForecastOrCD": false
        },
        {
            "id": "76ad44b7-2885-4e2f-b64d-66450c162514",
            "name": "hpe-alletra-mp-b10000 HPE Alletra MP B10000 Physical Disk Template - 1",
            "description": "hpe-alletra-mp-b10000 HPE Alletra MP B10000 Physical Disk Template - 1",
            "generation": 2,
            "collectorType": "Gateway",
            "applicableFor": "All Resources",
            "monitors": "HPE Alletra MP B10000 Allocated PhysicalDiskCapacity, HPE Alletra MP B10000 Allocated PhysicalDiskCapacity Utilization, HPE Alletra MP B10000 Failed PhysicalDiskCapacity, HPE Alletra MP B10000 IO PhysicalDiskStatistics, HPE Alletra MP B10000 KBytes PhysicalDiskStatistics, HPE Alletra MP B10000 ServiceTimeMS PhysicalDiskStatistics, HPE Alletra MP B10000 IOSizeKB PhysicalDiskStatistics, HPE Alletra MP B10000 QueueLength PhysicalDiskStatistics, HPE Alletra MP B10000 BusyPct PhysicalDiskStatistics, HPE Alletra MP B10000 PhysicalDiskSpacedata NormalChunklets, HPE Alletra MP B10000 PhysicalDiskSpacedata SpareChunklets, HPE Alletra MP B10000 PhysicalDiskSpacedata LifeLeftPct, HPE Alletra MP B10000 PhysicalDiskSpacedata TemperatureC, HPE Alletra MP B10000 PhysicalDisk State, HPE Alletra MP B10000 PhysicalDisk SpareCapacity",
            "createdDate": "2025-08-12T10:42:04+0000",
            "updatedDate": "2025-08-12T10:42:04+0000",
            "version": 1,
            "prerequisites": null,
            "status": "ACTIVE",
            "notes": null,
            "deploymentType": "Standard",
            "scope": "GLOBAL",
            "templateType": null,
            "hasForecastOrCD": false
        },
        {
            "id": "d560fd5b-8e08-4d06-af38-b5267d28c7d2",
            "name": "hpe-alletra-mp-b10000 HPE Alletra MP B10000 VLUN Template - 1",
            "description": "hpe-alletra-mp-b10000 HPE Alletra MP B10000 VLUN Template - 1",
            "generation": 2,
            "collectorType": "Gateway",
            "applicableFor": "All Resources",
            "monitors": "HPE Alletra MP B10000 IO VlunStatistics, HPE Alletra MP B10000 KBytes VlunStatistics, HPE Alletra MP B10000 ServiceTimeMS VlunStatistics, HPE Alletra MP B10000 IOSizeKB VlunStatistics, HPE Alletra MP B10000 QueueLength VlunStatistics",
            "createdDate": "2025-08-12T10:41:53+0000",
            "updatedDate": "2025-08-12T10:41:53+0000",
            "version": 1,
            "prerequisites": null,
            "status": "ACTIVE",
            "notes": null,
            "deploymentType": "Standard",
            "scope": "GLOBAL",
            "templateType": null,
            "hasForecastOrCD": false
        },
        {
            "id": "8bd3ae2a-d968-481a-ab2b-ee4474d96e77",
            "name": "hpe-alletra-mp-b10000 HPE Alletra MP B10000 Storage Volume Template - 1",
            "description": "hpe-alletra-mp-b10000 HPE Alletra MP B10000 Storage Volume Template - 1",
            "generation": 2,
            "collectorType": "Gateway",
            "applicableFor": "All Resources",
            "monitors": "HPE Alletra MP B10000 User RawReserved VolumeSpaceData, HPE Alletra MP B10000 Snap RawReserved VolumeSpaceData, HPE Alletra MP B10000 Admin RawReserved VolumeSpaceData, HPE Alletra MP B10000 Total RawReserved VolumeSpaceData, HPE Alletra MP B10000 Used UserSpace VolumeSpaceData, HPE Alletra MP B10000 Used UserSpace Utilization VolumeSpaceData, HPE Alletra MP B10000 Used SnapSpace VolumeSpaceData, HPE Alletra MP B10000 Used SnapSpace Utilization VolumeSpaceData, HPE Alletra MP B10000 Vcopy SnapSpace VolumeSpaceData, HPE Alletra MP B10000 Used AdminSpace VolumeSpaceData, HPE Alletra MP B10000 Used AdminSpace Utilization VolumeSpaceData, HPE Alletra MP B10000 Vcopy AdminSpace VolumeSpaceData, HPE Alletra MP B10000 Used TotalSpace VolumeSpaceData, HPE Alletra MP B10000 Used TotalSpace Utilization VolumeSpaceData, HPE Alletra MP B10000 Vcopy TotalSpace VolumeSpaceData, HPE Alletra MP B10000 HostWrite TotalSpace VolumeSpaceData, HPE Alletra MP B10000 VolumeSpaceData CapacityEfficiency, HPE Alletra MP B10000 VolumeSpaceData CompressionGcKBPS, HPE Alletra MP B10000 VolumeSpaceData CompressionState, HPE Alletra MP B10000 Volume State, HPE Alletra MP B10000 Volume DeduplicationState, HPE Alletra MP B10000 Volume Read IOPS, HPE Alletra MP B10000 Volume Write IOPS, HPE Alletra MP B10000 Volume SpaceData TotalSpace Virtual Size, HPE Alletra MP B10000 Volume Total IOPS, HPE Alletra MP B10000 Volume SnapsCount, HPE Alletra MP B10000 Volume LastSnapshot ElapsedTime, HPE Alletra MP B10000 Volume ReadLatency, HPE Alletra MP B10000 Volume WriteLatency, HPE Alletra MP B10000 Volume TotalLatency",
            "createdDate": "2025-08-12T10:41:50+0000",
            "updatedDate": "2025-08-12T10:41:50+0000",
            "version": 1,
            "prerequisites": null,
            "status": "ACTIVE",
            "notes": null,
            "deploymentType": "Standard",
            "scope": "GLOBAL",
            "templateType": null,
            "hasForecastOrCD": false
        },
        {
            "id": "936292b7-9daf-42b6-9a4d-ddbe509deb04",
            "name": "hpe-alletra-mp-b10000 HPE Alletra MP B10000 Common Provisioning Group Template - 1",
            "description": "hpe-alletra-mp-b10000 HPE Alletra MP B10000 Common Provisioning Group Template - 1",
            "generation": 2,
            "collectorType": "Gateway",
            "applicableFor": "All Resources",
            "monitors": "HPE Alletra MP B10000 CpgSpaceData Total Used Space, HPE Alletra MP B10000 CpgSpaceData User Used Space, HPE Alletra MP B10000 CpgSpaceData Snap Used Space, HPE Alletra MP B10000 CpgSpaceData Admin Used Space, HPE Alletra MP B10000 CpgSpaceData Total Used Space Utilization, HPE Alletra MP B10000 CpgSpaceData User Used Space Utilization, HPE Alletra MP B10000 CpgSpaceData Snap Used Space Utilization, HPE Alletra MP B10000 CpgSpaceData Admin Used Space Utilization, HPE Alletra MP B10000 CpgSpaceData Base Private Space, HPE Alletra MP B10000 CpgSpaceData Snapshot Private Space, HPE Alletra MP B10000 CpgSpaceData Growth, HPE Alletra MP B10000 CpgSpaceData Deduplication Gc, HPE Alletra MP B10000 CpgSpaceData CapacityEfficiency, HPE Alletra MP B10000 IO CpgStatistics, HPE Alletra MP B10000 Kbytes CpgStatistics, HPE Alletra MP B10000 ServiceTimeMS CpgStatistics, HPE Alletra MP B10000 IOSizeKB CpgStatistics, HPE Alletra MP B10000 QueueLength CpgStatistics, HPE Alletra MP B10000 BusyPct CpgStatistics, HPE Alletra MP B10000 CPG State",
            "createdDate": "2025-08-12T10:41:31+0000",
            "updatedDate": "2025-08-12T10:41:31+0000",
            "version": 1,
            "prerequisites": null,
            "status": "ACTIVE",
            "notes": null,
            "deploymentType": "Standard",
            "scope": "GLOBAL",
            "templateType": null,
            "hasForecastOrCD": false
        },
        {
            "id": "f3abe487-afa0-4464-9d39-80dff229d692",
            "name": "hpe-alletra-mp-b10000 HPE Alletra MP B10000 Storage System Template - 1",
            "description": "hpe-alletra-mp-b10000 HPE Alletra MP B10000 Storage System Template - 1",
            "generation": 2,
            "collectorType": "Gateway",
            "applicableFor": "All Resources",
            "monitors": "HPE Alletra MP B10000 System License State, HPE Alletra MP B10000 System Node Online Status, HPE Alletra MP B10000 System Allocated Capacity, HPE Alletra MP B10000 System Capacity Free for Allocation, HPE Alletra MP B10000 System Capacity Total Size, HPE Alletra MP B10000 System Capacity Used, HPE Alletra MP B10000 System Failed Capacity, HPE Alletra MP B10000 System OverProvisionedVirtualSize Capacity, HPE Alletra MP B10000 System OverProvisionedUsed Capacity, HPE Alletra MP B10000 System OverProvisionedAllocated Capacity, HPE Alletra MP B10000 System OverProvisionedFree Capacity, HPE Alletra MP B10000 HitIO CacheMemoryStatistics, HPE Alletra MP B10000 MissIO CacheMemoryStatistics, HPE Alletra MP B10000 AccessIO CacheMemoryStatistics, HPE Alletra MP B10000 HitPct CacheMemoryStatistics, HPE Alletra MP B10000 TotalAccessIO CacheMemoryStatistics, HPE Alletra MP B10000 LockBulkIO CacheMemoryStatistics, HPE Alletra MP B10000 PageStates CacheMemoryStatistics, HPE Alletra MP B10000 DirtyPages CacheMemoryStatistics, HPE Alletra MP B10000 MaxDirtyPages CacheMemoryStatistics, HPE Alletra MP B10000 DelayAckPages CacheMemoryStatistics, HPE Alletra MP B10000 UserPct CpuStatistics, HPE Alletra MP B10000 SystemPct CpuStatistics, HPE Alletra MP B10000 IdlePct CpuStatistics, HPE Alletra MP B10000 InterruptsPerSec CpuStatistics, HPE Alletra MP B10000 ContextSwitchesPerSec CpuStatistics, HPE Alletra MP B10000 DiskDrive State, HPE Alletra MP B10000 System Free Capacity, HPE Alletra MP B10000 System Free Capacity Utilization, HPE Alletra MP B10000 Remote Copy Status, HPE Alletra MP B10000 Remote Copy Target Status, HPE Alletra MP B10000 Remote Copy Target State, HPE Alletra MP B10000 Remote Copy Group State, HPE Alletra MP B10000 Remote Volume Sync State, HPE Alletra MP B10000 Remote Copy Total KBytes, HPE Alletra MP B10000 Remote Copy throughput KByte Sec, HPE Alletra MP B10000 Remote Copy Average Throughput KByte Sec, HPE Alletra MP B10000 Remote Copy Link Status, HPE Alletra MP B10000 Remote Copy Link State, HPE Alletra MP B10000 Remote Copy Target Quorum Status, HPE Alletra MP B10000 Remote Copy Role, HPE Alletra MP B10000 Remote Copy Link Throughput KByte Sec, HPE Alletra MP B10000 System UsedCapacity Utilization, HPE Alletra MP B10000 Event Statistics",
            "createdDate": "2025-08-12T10:41:19+0000",
            "updatedDate": "2025-08-12T10:41:19+0000",
            "version": 1,
            "prerequisites": null,
            "status": "ACTIVE",
            "notes": null,
            "deploymentType": "Standard",
            "scope": "GLOBAL",
            "templateType": null,
            "hasForecastOrCD": false
        },
        {
            "id": "224c0b3d-5f3b-4978-9fe5-7f629f3dad85",
            "name": "hpe-alletra Alletra MP HPE Alletra Node Template - 10",
            "description": "hpe-alletra Alletra MP HPE Alletra Node Template - 10",
            "generation": 2,
            "collectorType": "Gateway",
            "applicableFor": "All Resources",
            "monitors": "hpe_alletra_node_State",
            "createdDate": "2025-05-21T10:56:07+0000",
            "updatedDate": "2025-05-21T10:56:07+0000",
            "version": 10,
            "prerequisites": null,
            "status": "ACTIVE",
            "notes": null,
            "deploymentType": "Standard",
            "scope": "GLOBAL",
            "templateType": null,
            "hasForecastOrCD": false
        },
        {
            "id": "97c7cd48-faba-4798-af5e-f38fbbc6a8bb",
            "name": "hpe-alletra Alletra MP HPE Alletra Cage Template - 10",
            "description": "hpe-alletra Alletra MP HPE Alletra Cage Template - 10",
            "generation": 2,
            "collectorType": "Gateway",
            "applicableFor": "All Resources",
            "monitors": "HPE Alletra Cage Detailed State, hpe_alletra_cagePowerSupply_State, hpe_alletra_cagePowerSupply_FanState",
            "createdDate": "2025-05-21T10:56:06+0000",
            "updatedDate": "2025-05-21T10:56:06+0000",
            "version": 10,
            "prerequisites": null,
            "status": "ACTIVE",
            "notes": null,
            "deploymentType": "Standard",
            "scope": "GLOBAL",
            "templateType": null,
            "hasForecastOrCD": false
        },
        {
            "id": "3a2738ef-8671-4fcf-ab5b-f81e29addf7e",
            "name": "hpe-alletra Alletra MP HPE Alletra Port Template - 10",
            "description": "hpe-alletra Alletra MP HPE Alletra Port Template - 10",
            "generation": 2,
            "collectorType": "Gateway",
            "applicableFor": "All Resources",
            "monitors": "hpe_alletra_portStatistics_Speed, hpe_alletra_portStatistics_IO, hpe_alletra_portStatistics_KBytes, hpe_alletra_portStatistics_ServiceTimeMS, hpe_alletra_portStatistics_IOSizeKB, hpe_alletra_portStatistics_QueueLength, hpe_alletra_portStatistics_BusyPct, hpe_alletra_port_LinkState, hpe_alletra_port_State, hpe_alletra_port_FailoverState",
            "createdDate": "2025-05-21T10:56:06+0000",
            "updatedDate": "2025-05-21T10:56:06+0000",
            "version": 10,
            "prerequisites": null,
            "status": "ACTIVE",
            "notes": null,
            "deploymentType": "Standard",
            "scope": "GLOBAL",
            "templateType": null,
            "hasForecastOrCD": false
        },
        {
            "id": "bbc34e80-5d06-4d2d-9c48-dc5a34938b11",
            "name": "hpe-alletra Alletra MP HPE Alletra Physical Disk Template - 10",
            "description": "hpe-alletra Alletra MP HPE Alletra Physical Disk Template - 10",
            "generation": 2,
            "collectorType": "Gateway",
            "applicableFor": "All Resources",
            "monitors": "hpe_alletra_physicalDiskCapacity_AllocatedMiB, hpe_alletra_physicalDiskCapacity_AllocatedUtilization, hpe_alletra_physicalDiskCapacity_FailedMiB, hpe_alletra_physicalDiskStatistics_IO, hpe_alletra_physicalDiskStatistics_KBytes, hpe_alletra_physicalDiskStatistics_ServiceTimeMS, hpe_alletra_physicalDiskStatistics_IOSizeKB, hpe_alletra_physicalDiskStatistics_QueueLength, hpe_alletra_physicalDiskStatistics_BusyPct, hpe_alletra_physicalDiskSpacedata_NormalChunklets, hpe_alletra_physicalDiskSpacedata_SpareChunklets, hpe_alletra_physicalDiskSpacedata_LifeLeftPct, hpe_alletra_physicalDiskSpacedata_TemperatureC, HPE Alletra PhysicalDisk State, HPE Alletra PhysicalDisk SpareCapacity",
            "createdDate": "2025-05-21T10:56:06+0000",
            "updatedDate": "2025-05-21T10:56:06+0000",
            "version": 10,
            "prerequisites": null,
            "status": "ACTIVE",
            "notes": null,
            "deploymentType": "Standard",
            "scope": "GLOBAL",
            "templateType": null,
            "hasForecastOrCD": false
        },
        {
            "id": "1973c1b0-2f12-41f4-b2a5-cb7b771f7c8e",
            "name": "hpe-alletra Alletra MP HPE Alletra VLUN Template - 10",
            "description": "hpe-alletra Alletra MP HPE Alletra VLUN Template - 10",
            "generation": 2,
            "collectorType": "Gateway",
            "applicableFor": "All Resources",
            "monitors": "hpe_alletra_vlunstatistics_IO, hpe_alletra_vlunstatistics_KBytes, hpe_alletra_vlunstatistics_ServiceTimeMS, hpe_alletra_vlunstatistics_IOSizeKB, hpe_alletra_vlunstatistics_QueueLength, hpe_alletra_vlunstatistics_BusyPct",
            "createdDate": "2025-05-21T10:56:05+0000",
            "updatedDate": "2025-05-21T10:56:05+0000",
            "version": 10,
            "prerequisites": null,
            "status": "ACTIVE",
            "notes": null,
            "deploymentType": "Standard",
            "scope": "GLOBAL",
            "templateType": null,
            "hasForecastOrCD": false
        },
        {
            "id": "22cef4ac-3027-4cfe-9ef1-9918aec8c003",
            "name": "hpe-alletra Alletra MP HPE Alletra Storage Volume Template - 10",
            "description": "hpe-alletra Alletra MP HPE Alletra Storage Volume Template - 10",
            "generation": 2,
            "collectorType": "Gateway",
            "applicableFor": "All Resources",
            "monitors": "hpe_alletra_volumeSpaceData_rawReserved_UserMiB, hpe_alletra_volumeSpaceData_rawReserved_SnapMiB, hpe_alletra_volumeSpaceData_rawReserved_AdminMiB, hpe_alletra_volumeSpaceData_rawReserved_TotalMiB, hpe_alletra_volumeSpaceData_userSpace_UsedMiB, hpe_alletra_volumeSpaceData_userSpace_UsedUtilization, hpe_alletra_volumeSpaceData_snapSpace_UsedMiB, hpe_alletra_volumeSpaceData_snapSpace_UsedUtilization, hpe_alletra_volumeSpaceData_snapSpace_VcopyMiB, hpe_alletra_volumeSpaceData_adminSpace_UsedMiB, hpe_alletra_volumeSpaceData_adminSpace_UsedUtilization, hpe_alletra_volumeSpaceData_adminSpace_VcopyMiB, hpe_alletra_volumeSpaceData_totalSpace_UsedMiB, hpe_alletra_volumeSpaceData_totalSpace_UsedUtilization, hpe_alletra_volumeSpaceData_totalSpace_VcopyMiB, hpe_alletra_volumeSpaceData_totalSpace_HostWriteMiB, hpe_alletra_volumeSpaceData_CapacityEfficiency, hpe_alletra_volumeSpaceData_CompressionGcKBPS, hpe_alletra_volumeSpaceData_CompressionState, hpe_alletra_volume_State, hpe_alletra_volume_DeduplicationState, HPE Alletra Volume Read IOPS, HPE Alletra Volume Write IOPS, HPE Alletra Volume SpaceData TotalSpace Virtual Size, HPE Alletra Volume Total IOPS, HPE Alletra Volume SnapsCount, HPE Alletra Volume LastSnapshot ElapsedTime, HPE Alletra Volume Read Latency, HPE Alletra Volume Write Latency, HPE Alletra Volume TotalLatency",
            "createdDate": "2025-05-21T10:56:05+0000",
            "updatedDate": "2025-05-21T10:56:05+0000",
            "version": 10,
            "prerequisites": null,
            "status": "ACTIVE",
            "notes": null,
            "deploymentType": "Standard",
            "scope": "GLOBAL",
            "templateType": null,
            "hasForecastOrCD": false
        },
        {
            "id": "a3fd205e-35f9-4128-827f-aa969d92ee99",
            "name": "hpe-alletra Alletra MP HPE Alletra Common Provisioning Group Template - 10",
            "description": "hpe-alletra Alletra MP HPE Alletra Common Provisioning Group Template - 10",
            "generation": 2,
            "collectorType": "Gateway",
            "applicableFor": "All Resources",
            "monitors": "hpe_alletra_cpgSpaceData_TotalUsedSpaceMiB, hpe_alletra_cpgSpaceData_UserUsedSpaceMiB, hpe_alletra_cpgSpaceData_SnapUsedSpaceMiB, hpe_alletra_cpgSpaceData_AdminUsedSpaceMiB, hpe_alletra_cpgSpaceData_TotalUsedSpaceUtilization, hpe_alletra_cpgSpaceData_UserUsedSpaceUtilization, hpe_alletra_cpgSpaceData_SnapUsedSpaceUtilization, hpe_alletra_cpgSpaceData_AdminUsedSpaceUtilization, hpe_alletra_cpgSpaceData_base_PrivateSpaceMiB, hpe_alletra_cpgSpaceData_snapshot_PrivateSpaceMiB, hpe_alletra_cpgSpaceData_GrowthMiB, hpe_alletra_cpgSpaceData_DeduplicationGcKBPS, hpe_alletra_cpgSpaceData_CapacityEfficiency, hpe_alletra_cpgStatistics_IO, hpe_alletra_cpgStatistics_Kbytes, hpe_alletra_cpgStatistics_ServiceTimeMS, hpe_alletra_cpgStatistics_IOSizeKB, hpe_alletra_cpgStatistics_QueueLength, hpe_alletra_cpgStatistics_BusyPct, hpe_alletra_cpg_state",
            "createdDate": "2025-05-21T10:56:05+0000",
            "updatedDate": "2025-05-21T10:56:05+0000",
            "version": 10,
            "prerequisites": null,
            "status": "ACTIVE",
            "notes": null,
            "deploymentType": "Standard",
            "scope": "GLOBAL",
            "templateType": null,
            "hasForecastOrCD": false
        },
        {
            "id": "0b6e873b-1598-4bb2-abc8-682bbc751a0e",
            "name": "hpe-alletra Alletra MP HPE Alletra Storage System Template - 10",
            "description": "hpe-alletra Alletra MP HPE Alletra Storage System Template - 10",
            "generation": 2,
            "collectorType": "Gateway",
            "applicableFor": "All Resources",
            "monitors": "hpe_alletra_system_license_State, hpe_alletra_system_node_online_status, hpe_alletra_system_capacity_AllocatedMiB, HPE Alletra System Capacity Free for Allocation, HPE Alletra System Capacity Total Size, HPE Alletra System Capacity Used, hpe_alletra_system_capacity_FailedMiB, hpe_alletra_system_capacity_OverProvisionedVirtualSizeMiB, hpe_alletra_system_capacity_OverProvisionedUsedMiB, hpe_alletra_system_capacity_OverProvisionedAllocatedMiB, hpe_alletra_system_capacity_OverProvisionedFreeMiB, hpe_alletra_cacheMemoryStatistics_HitIO, hpe_alletra_cacheMemoryStatistics_MissIO, hpe_alletra_cacheMemoryStatistics_AccessIO, hpe_alletra_cacheMemoryStatistics_HitPct, hpe_alletra_cacheMemoryStatistics_TotalAccessIO, hpe_alletra_cacheMemoryStatistics_LockBulkIO, hpe_alletra_cacheMemoryStatistics_PageStates, hpe_alletra_cacheMemoryStatistics_DirtyPages, hpe_alletra_cacheMemoryStatistics_MaxDirtyPages, hpe_alletra_cacheMemoryStatistics_DelayAckPages, hpe_alletra_cpuStatistics_UserPct, hpe_alletra_cpuStatistics_SystemPct, hpe_alletra_cpuStatistics_IdlePct, hpe_alletra_cpuStatistics_InterruptsPerSec, hpe_alletra_cpuStatistics_ContextSwitchesPerSec, hpe_alletra_diskDrive_State, HPE Alletra System Free Capacity, HPE Alletra System Free Capacity Utilization, HPE Alletra Remote Copy Status, HPE Alletra Remote Copy Target Status, HPE Alletra Remote Copy Target State, HPE Alletra Remote Copy Group State, HPE Alletra Remote Volume Sync State, HPE Alletra Remote Copy Total KBytes, HPE Alletra Remote Copy throughput KByte Sec, HPE Alletra Remote Copy Average Throughput KByte Sec, HPE Alletra Remote Copy Link Status, HPE Alletra Remote Copy Link State, HPE Alletra Remote Copy Target Quorum Status, HPE Alletra Remote Copy Role, HPE Alletra Remote Copy Link Throughput KByte Sec, HPE Alletra System UsedCapacity Utilization, hpe_alletra_event_Statistics",
            "createdDate": "2025-05-21T10:55:56+0000",
            "updatedDate": "2025-05-21T10:55:56+0000",
            "version": 10,
            "prerequisites": null,
            "status": "ACTIVE",
            "notes": null,
            "deploymentType": "Standard",
            "scope": "GLOBAL",
            "templateType": null,
            "hasForecastOrCD": false
        },
        {
            "id": "1e44a9f6-2742-457d-8398-839d55916d54",
            "name": "hpe-alletra Alletra MP HPE Alletra Node Template - 9",
            "description": "hpe-alletra Alletra MP HPE Alletra Node Template - 9",
            "generation": 2,
            "collectorType": "Gateway",
            "applicableFor": "All Resources",
            "monitors": "hpe_alletra_node_State",
            "createdDate": "2025-04-08T09:40:44+0000",
            "updatedDate": "2025-04-08T09:40:44+0000",
            "version": 9,
            "prerequisites": null,
            "status": "ACTIVE",
            "notes": null,
            "deploymentType": "Standard",
            "scope": "GLOBAL",
            "templateType": null,
            "hasForecastOrCD": false
        },
        {
            "id": "e74100ac-7690-4b56-8a4c-6e71e8d74926",
            "name": "hpe-alletra Alletra MP HPE Alletra Cage Template - 9",
            "description": "hpe-alletra Alletra MP HPE Alletra Cage Template - 9",
            "generation": 2,
            "collectorType": "Gateway",
            "applicableFor": "All Resources",
            "monitors": "HPE Alletra Cage Detailed State, hpe_alletra_cagePowerSupply_State, hpe_alletra_cagePowerSupply_FanState",
            "createdDate": "2025-04-08T09:40:44+0000",
            "updatedDate": "2025-04-08T09:40:44+0000",
            "version": 9,
            "prerequisites": null,
            "status": "ACTIVE",
            "notes": null,
            "deploymentType": "Standard",
            "scope": "GLOBAL",
            "templateType": null,
            "hasForecastOrCD": false
        },
        {
            "id": "7b17a2bc-992d-49d2-aa06-e5091f8f86a2",
            "name": "hpe-alletra Alletra MP HPE Alletra Port Template - 9",
            "description": "hpe-alletra Alletra MP HPE Alletra Port Template - 9",
            "generation": 2,
            "collectorType": "Gateway",
            "applicableFor": "All Resources",
            "monitors": "hpe_alletra_portStatistics_Speed, hpe_alletra_portStatistics_IO, hpe_alletra_portStatistics_KBytes, hpe_alletra_portStatistics_ServiceTimeMS, hpe_alletra_portStatistics_IOSizeKB, hpe_alletra_portStatistics_QueueLength, hpe_alletra_portStatistics_BusyPct, hpe_alletra_port_LinkState, hpe_alletra_port_State, hpe_alletra_port_FailoverState",
            "createdDate": "2025-04-08T09:40:43+0000",
            "updatedDate": "2025-04-08T09:40:43+0000",
            "version": 9,
            "prerequisites": null,
            "status": "ACTIVE",
            "notes": null,
            "deploymentType": "Standard",
            "scope": "GLOBAL",
            "templateType": null,
            "hasForecastOrCD": false
        },
        {
            "id": "c7006cc2-6420-4270-bc7b-96b069e7296f",
            "name": "hpe-alletra Alletra MP HPE Alletra Physical Disk Template - 9",
            "description": "hpe-alletra Alletra MP HPE Alletra Physical Disk Template - 9",
            "generation": 2,
            "collectorType": "Gateway",
            "applicableFor": "All Resources",
            "monitors": "hpe_alletra_physicalDiskCapacity_AllocatedMiB, hpe_alletra_physicalDiskCapacity_AllocatedUtilization, hpe_alletra_physicalDiskCapacity_FailedMiB, hpe_alletra_physicalDiskStatistics_IO, hpe_alletra_physicalDiskStatistics_KBytes, hpe_alletra_physicalDiskStatistics_ServiceTimeMS, hpe_alletra_physicalDiskStatistics_IOSizeKB, hpe_alletra_physicalDiskStatistics_QueueLength, hpe_alletra_physicalDiskStatistics_BusyPct, hpe_alletra_physicalDiskSpacedata_NormalChunklets, hpe_alletra_physicalDiskSpacedata_SpareChunklets, hpe_alletra_physicalDiskSpacedata_LifeLeftPct, hpe_alletra_physicalDiskSpacedata_TemperatureC, HPE Alletra PhysicalDisk State",
            "createdDate": "2025-04-08T09:40:42+0000",
            "updatedDate": "2025-04-08T09:40:42+0000",
            "version": 9,
            "prerequisites": null,
            "status": "ACTIVE",
            "notes": null,
            "deploymentType": "Standard",
            "scope": "GLOBAL",
            "templateType": null,
            "hasForecastOrCD": false
        }
    ],
    "totalResults": 72,
    "orderBy": "id",
    "pageNo": 1,
    "pageSize": 20,
    "totalPages": 4,
    "nextPage": true,
    "nextPageNo": 2,
    "previousPageNo": 0,
    "descendingOrder": true
}